com\mycompany\reportproject\ArtistDao.class
com\mycompany\reportproject\DatabaseHelper.class
com\mycompany\reportproject\Report1$2.class
com\mycompany\reportproject\ArtistReport.class
com\mycompany\reportproject\Report1$1.class
com\mycompany\reportproject\Artist.class
com\mycompany\reportproject\ReportProject.class
com\mycompany\reportproject\Report1$3.class
com\mycompany\reportproject\ArtistService.class
com\mycompany\reportproject\Report1.class
com\mycompany\reportproject\DateLabelFormatter.class
com\mycompany\reportproject\Dao.class
